salário, garantia, empréstimo, decisão
1900, 9000, 30000, sim
900, 4000, 22000, sim
2300, 7000, 170000, não
900, 7000, 150000, não
4000, 10000, 160000, sim
800, 10000, 25000, sim
3000, 1000, 150000, não
900, 1500, 15000, não
5000, 1000, 60000, sim
1600, 5000, 20000, sim
3200, 500, 150000, não
1100, 11000, 190000, não
4500, 13000, 120000, sim
600, 1000, 3000, sim
0, 1000, 7000, não
100, 200, 3000, não